<svg width="16" height="16" viewBox="0 0 16 16" fill="none" xmlns="http://www.w3.org/2000/svg">
<path d="M9.29004 15.8958C9.22339 15.9066 9.15649 15.9166 9.08936 15.9258C9.15649 15.9166 9.22339 15.9066 9.29004 15.8958Z" fill="black"/>
<path d="M9.45007 15.8684C9.41821 15.8743 9.38635 15.8796 9.35449 15.8851C9.38635 15.8796 9.41821 15.8743 9.45007 15.8684Z" fill="black"/>
<path d="M8.91052 15.9482C8.83252 15.957 8.75403 15.9648 8.67529 15.9714C8.75403 15.9648 8.83252 15.957 8.91052 15.9482Z" fill="black"/>
<path d="M9.06396 15.9294C9.02649 15.9344 8.98877 15.9391 8.95117 15.9435C8.98877 15.9391 9.02649 15.9344 9.06396 15.9294Z" fill="black"/>
<path d="M9.66748 15.8252C9.6394 15.8312 9.61121 15.8372 9.58301 15.8429C9.61121 15.8372 9.6394 15.8312 9.66748 15.8252Z" fill="black"/>
<path d="M10.2083 15.6912C10.1855 15.6976 10.1628 15.7037 10.1401 15.7101C10.1628 15.7037 10.1855 15.6976 10.2083 15.6912Z" fill="black"/>
<path d="M10.0449 15.7356C10.0203 15.7421 9.99548 15.7487 9.9707 15.7549C9.99548 15.7487 10.0203 15.7422 10.0449 15.7356Z" fill="black"/>
<path d="M9.83081 15.7891C9.80469 15.7952 9.77832 15.8009 9.75195 15.8068C9.77832 15.8009 9.80469 15.7952 9.83081 15.7891Z" fill="black"/>
<path d="M8.67285 15.9717C8.63074 15.9752 8.58862 15.9784 8.54639 15.9812C8.58862 15.9784 8.63074 15.9752 8.67285 15.9717Z" fill="black"/>
<path d="M16 8C16 3.5824 12.4176 0 8 0C3.5824 0 0 3.5824 0 8C0 12.4176 3.5824 16 8 16C8.047 16 8.09375 15.999 8.14062 15.9982V9.77051H6.42188V7.76746H8.14062V6.29346C8.14062 4.58398 9.1842 3.65356 10.7091 3.65356C11.4393 3.65356 12.067 3.70801 12.25 3.7323V5.51892H11.1985C10.3689 5.51892 10.2083 5.91321 10.2083 6.4917V7.76746H12.1919L11.9333 9.77051H10.2083V15.6909C13.5521 14.7323 16 11.6516 16 8Z" fill="black"/>
<path d="M8.52856 15.9822C8.44531 15.9875 8.36169 15.9918 8.27783 15.9946C8.36169 15.9918 8.44531 15.9875 8.52856 15.9822Z" fill="black"/>
<path d="M8.27344 15.9949C8.22925 15.9963 8.18494 15.9974 8.14062 15.9982C8.18494 15.9974 8.22925 15.9963 8.27344 15.9949Z" fill="black"/>
</svg>
