<svg width="16" height="16" viewBox="0 0 16 16" fill="none" xmlns="http://www.w3.org/2000/svg">
<path d="M6.46875 8C6.46875 8.8457 7.1543 9.53125 8 9.53125C8.8457 9.53125 9.53125 8.8457 9.53125 8C9.53125 7.1543 8.8457 6.46875 8 6.46875C7.1543 6.46875 6.46875 7.1543 6.46875 8Z" fill="black"/>
<path d="M4.41895 5.29089C4.49255 5.09143 4.60999 4.91089 4.76257 4.7627C4.91077 4.61011 5.09119 4.49268 5.29077 4.41907C5.45264 4.3562 5.6958 4.28137 6.14368 4.26099C6.62817 4.23889 6.77344 4.23413 8 4.23413C9.22668 4.23413 9.37195 4.23877 9.85632 4.26086C10.3042 4.28137 10.5475 4.3562 10.7092 4.41907C10.9088 4.49268 11.0894 4.61011 11.2374 4.7627C11.39 4.91089 11.5074 5.09131 11.5812 5.29089C11.644 5.45276 11.7189 5.69605 11.7393 6.14392C11.7614 6.6283 11.7661 6.77356 11.7661 8.00024C11.7661 9.22681 11.7614 9.37207 11.7393 9.85657C11.7189 10.3044 11.644 10.5476 11.5812 10.7095C11.5074 10.9091 11.3901 11.0895 11.2375 11.2377C11.0894 11.3903 10.9089 11.5077 10.7094 11.5813C10.5475 11.6443 10.3042 11.7191 9.85632 11.7395C9.37195 11.7616 9.22681 11.7662 8.00012 11.7662C6.77332 11.7662 6.62805 11.7616 6.1438 11.7395C5.69592 11.7191 5.45264 11.6443 5.29077 11.5813C4.89014 11.4268 4.57349 11.1101 4.41895 10.7095C4.35608 10.5476 4.28125 10.3044 4.26074 9.85657C4.23865 9.37207 4.23401 9.22681 4.23401 8.00024C4.23401 6.77356 4.23865 6.6283 4.26074 6.14392C4.28113 5.69605 4.35596 5.45276 4.41895 5.29089ZM8 10.359C9.30286 10.359 10.359 9.30298 10.359 8.00012C10.359 6.69727 9.30286 5.64124 8 5.64124C6.69727 5.64124 5.64111 6.69727 5.64111 8.00012C5.64111 9.30298 6.69727 10.359 8 10.359ZM5.54785 6.09924C5.8523 6.09924 6.09912 5.85242 6.09912 5.54797C6.09912 5.24353 5.8523 4.9967 5.54785 4.9967C5.24341 4.9967 4.99658 5.24353 4.99658 5.54797C4.9967 5.85242 5.24341 6.09924 5.54785 6.09924Z" fill="black"/>
<path d="M8 0C12.4176 0 16 3.5824 16 8C16 12.4176 12.4176 16 8 16C3.5824 16 0 12.4176 0 8C0 3.5824 3.5824 0 8 0ZM3.43396 9.89392C3.45618 10.3829 3.53394 10.7168 3.64746 11.009C3.88611 11.6261 4.3739 12.1139 4.99097 12.3525C5.28308 12.4661 5.61707 12.5437 6.10596 12.566C6.59583 12.5884 6.75232 12.5938 7.99988 12.5938C9.24756 12.5938 9.40393 12.5884 9.89392 12.566C10.3828 12.5437 10.7168 12.4661 11.0089 12.3525C11.3156 12.2372 11.5931 12.0564 11.8226 11.8226C12.0563 11.5933 12.2371 11.3156 12.3524 11.009C12.4659 10.7169 12.5437 10.3829 12.5659 9.89404C12.5885 9.40405 12.5938 9.24756 12.5938 8C12.5938 6.75244 12.5885 6.59595 12.566 6.10608C12.5438 5.61707 12.4662 5.2832 12.3527 4.99097C12.2373 4.68445 12.0564 4.40674 11.8226 4.17737C11.5933 3.9436 11.3156 3.76282 11.009 3.64746C10.7168 3.53394 10.3829 3.4563 9.89392 3.43396C9.40405 3.41162 9.24756 3.40625 8 3.40625C6.75244 3.40625 6.59595 3.41162 6.10608 3.43408C5.61707 3.4563 5.2832 3.53394 4.99097 3.64734C4.68445 3.7627 4.40674 3.9436 4.17725 4.17737C3.9436 4.40686 3.7627 4.68445 3.64746 4.99097C3.53381 5.2832 3.45618 5.61707 3.43384 6.10608C3.4115 6.59595 3.40625 6.75244 3.40625 8C3.40625 9.24756 3.4115 9.40405 3.43396 9.89392Z" fill="black"/>
</svg>
