<svg width="18" height="16" viewBox="0 0 18 16" fill="none" xmlns="http://www.w3.org/2000/svg">
<path d="M16.3926 15.0715C16.7973 15.0715 17.1478 14.9379 17.4459 14.6741L12.3462 9.57419C12.2238 9.6618 12.1053 9.747 11.9932 9.82801C11.6116 10.1092 11.3018 10.3286 11.064 10.4858C10.8262 10.6434 10.5098 10.804 10.1148 10.968C9.71958 11.1322 9.35137 11.214 9.0098 11.214H8.9998H8.9898C8.6482 11.214 8.27999 11.1322 7.88479 10.968C7.48959 10.804 7.17318 10.6434 6.9356 10.4858C6.69779 10.3286 6.38821 10.1092 6.00637 9.82801C5.89997 9.75001 5.78196 9.66442 5.65438 9.57281L0.553711 14.6741C0.85172 14.9379 1.20254 15.0715 1.60712 15.0715H16.3926Z" fill="#3E3B3D"/>
<path d="M1.01462 6.36278C0.633012 6.10837 0.294611 5.81699 0 5.48878V13.2478L4.49484 8.753C3.59562 8.12521 2.43702 7.32939 1.01462 6.36278Z" fill="#3E3B3D"/>
<path d="M16.9954 6.36278C15.6273 7.2888 14.4645 8.086 13.5068 8.75479L17.9999 13.248V5.48878C17.7118 5.81039 17.377 6.10157 16.9954 6.36278Z" fill="#3E3B3D"/>
<path d="M16.393 0.928543H1.60753C1.09171 0.928543 0.695135 1.10273 0.417322 1.45074C0.13928 1.79891 0.000488281 2.23434 0.000488281 2.75653C0.000488281 3.17833 0.184673 3.63537 0.552879 4.12776C0.921085 4.61995 1.31289 5.00655 1.72809 5.28777C1.9557 5.44858 2.64211 5.92578 3.78732 6.71918C4.40553 7.14759 4.94315 7.52099 5.40515 7.84321C5.79894 8.1176 6.13855 8.35521 6.41895 8.5524C6.45114 8.57499 6.50176 8.6112 6.56895 8.65924C6.64133 8.71123 6.73294 8.77721 6.84594 8.85881C7.06356 9.0162 7.24435 9.14342 7.38833 9.24061C7.53213 9.33784 7.70634 9.44643 7.91072 9.56702C8.11494 9.68745 8.30756 9.778 8.48834 9.83823C8.66916 9.89843 8.83655 9.92863 8.99054 9.92863H9.00054H9.01054C9.16449 9.92863 9.33191 9.89843 9.51276 9.83823C9.69352 9.778 9.88597 9.68764 10.0904 9.56702C10.2945 9.44643 10.4685 9.33761 10.6128 9.24061C10.7568 9.14342 10.9375 9.01623 11.1552 8.85881C11.268 8.77721 11.3596 8.7112 11.432 8.6594C11.4992 8.61116 11.5498 8.57518 11.5822 8.5524C11.8006 8.40041 12.141 8.16377 12.5986 7.84599C13.4314 7.26739 14.6578 6.41578 16.2831 5.28777C16.7719 4.94636 17.1802 4.53436 17.5084 4.05236C17.836 3.57036 18.0003 3.06477 18.0003 2.53575C18.0003 2.09375 17.841 1.71554 17.5232 1.40054C17.2051 1.08593 16.8283 0.928543 16.393 0.928543Z" fill="#3E3B3D"/>
</svg>
